{
    "coc.preferences.formatOnSaveFiletypes": ["python", "svelte", "typescript"],
    "coc.preferences.willSaveHandlerTimeout": 500,
    "diagnostic.messageTarget": "echo",
    "diagnostic.enableMessage": "jump",
    "diagnostic.virtualText": true,
    "diagnostic.virtualTextCurrentLineOnly": true,
    "python.formatting.provider": "black",
    "python.linting.enabled": true,
    "python.linting.mypyEnabled": true,
    "sql.database": "postgresql"
}
